# compile vhdl design source files
vhdl xil_defaultlib  \
"../../../../L4_CPU_DATAPAD.srcs/sources_1/imports/Labo/2021_digitaldesignlabo_casnrobin/Digital_design_labo_1/L3_Counter_Register/Labo2_Reg_Cntr/Labo2_Reg_Cntr.srcs/sources_1/imports/sources/basic_register.vhd" \
"../../../../L4_CPU_DATAPAD.srcs/sources_1/imports/Labo/LDD/LDD1/L4_DataPath/sources/register_file.vhd" \
"../../../../L4_CPU_DATAPAD.srcs/sim_1/imports/sources/register_file_tb.vhd" \

# Do not sort compile order
nosort
