# compile vhdl design source files
vhdl xil_defaultlib  \
"../../../../ALU.srcs/sources_1/imports/sources/ADD.vhd" \
"../../../../ALU.srcs/sources_1/imports/sources/FA1B.vhd" \
"../../../../ALU.srcs/sim_1/imports/sources/ADD_tb.vhd" \

# Do not sort compile order
nosort
