Copyright 1986-2017 Xilinx, Inc. All Rights Reserved.
------------------------------------------------------------------------------------
| Tool Version : Vivado v.2017.4 (lin64) Build 2086221 Fri Dec 15 20:54:30 MST 2017
| Date         : Tue Dec  8 13:36:07 2020
| Host         : b230-PC09 running 64-bit Ubuntu 18.04.5 LTS
| Command      : report_control_sets -verbose -file top_control_sets_placed.rpt
| Design       : top
| Device       : xc7a100t
------------------------------------------------------------------------------------

Control Set Information

Table of Contents
-----------------
1. Summary
2. Flip-Flop Distribution
3. Detailed Control Set Information

1. Summary
----------

+----------------------------------------------------------+-------+
|                          Status                          | Count |
+----------------------------------------------------------+-------+
| Number of unique control sets                            |    53 |
| Unused register locations in slices containing registers |    85 |
+----------------------------------------------------------+-------+


2. Flip-Flop Distribution
-------------------------

+--------------+-----------------------+------------------------+-----------------+--------------+
| Clock Enable | Synchronous Set/Reset | Asynchronous Set/Reset | Total Registers | Total Slices |
+--------------+-----------------------+------------------------+-----------------+--------------+
| No           | No                    | No                     |              66 |           27 |
| No           | No                    | Yes                    |              48 |           13 |
| No           | Yes                   | No                     |               0 |            0 |
| Yes          | No                    | No                     |               8 |            2 |
| Yes          | No                    | Yes                    |             243 |           65 |
| Yes          | Yes                   | No                     |             294 |           84 |
+--------------+-----------------------+------------------------+-----------------+--------------+


3. Detailed Control Set Information
-----------------------------------

+--------------+-------------------------------------------------------------------------------+-------------------------------------------------------------------------------------+------------------+----------------+
| Clock Signal |                                 Enable Signal                                 |                                   Set/Reset Signal                                  | Slice Load Count | Bel Load Count |
+--------------+-------------------------------------------------------------------------------+-------------------------------------------------------------------------------------+------------------+----------------+
|  clk_i       | PROCESSOR_INST/MAR/data_out_reg[3]_0[0]                                       | PROCESSOR_INST/REG_FILE/GEN_Basic_registers[0].B_REG/AR[0]                          |                1 |              4 |
|  clk_i       | PROCESSOR_INST/MAR/data_out_reg[0]_4[0]                                       | PROCESSOR_INST/REG_FILE/GEN_Basic_registers[0].B_REG/AR[0]                          |                1 |              4 |
|  clk_i       | PROCESSOR_INST/MAR/data_out_reg[0]_3[0]                                       | PROCESSOR_INST/REG_FILE/GEN_Basic_registers[0].B_REG/AR[0]                          |                1 |              4 |
|  clk_i       | PROCESSOR_INST/MAR/data_out_reg[0]_2[0]                                       | PROCESSOR_INST/REG_FILE/GEN_Basic_registers[0].B_REG/AR[0]                          |                1 |              4 |
|  clk_i       | PROCESSOR_INST/MAR/data_out_reg[0]_1[0]                                       | PROCESSOR_INST/REG_FILE/GEN_Basic_registers[0].B_REG/AR[0]                          |                1 |              4 |
|  clk_i       | PROCESSOR_INST/CU/IC/E[0]                                                     | PROCESSOR_INST/REG_FILE/GEN_Basic_registers[0].B_REG/AR[0]                          |                2 |              5 |
|  clk_i       | PROCESSOR_INST/CU/control_lines_i[4]                                          | PROCESSOR_INST/REG_FILE/GEN_Basic_registers[0].B_REG/AR[0]                          |                3 |              8 |
|  clk_i       | PROCESSOR_INST/CU/IC/output_reg[7][0]                                         | PROCESSOR_INST/REG_FILE/GEN_Basic_registers[0].B_REG/AR[0]                          |                2 |              8 |
|  clk_i       | PROCESSOR_INST/IR_MSB/data_out_reg[0]_5[0]                                    | PROCESSOR_INST/REG_FILE/GEN_Basic_registers[0].B_REG/AR[0]                          |                1 |              8 |
|  clk_i       | PROCESSOR_INST/IR_MSB/data_out_reg[0]_6[0]                                    | PROCESSOR_INST/REG_FILE/GEN_Basic_registers[0].B_REG/AR[0]                          |                3 |              8 |
|  clk_i       | PROCESSOR_INST/IR_MSB/data_out_reg[0]_7[0]                                    | PROCESSOR_INST/REG_FILE/GEN_Basic_registers[0].B_REG/AR[0]                          |                2 |              8 |
|  clk_i       | PROCESSOR_INST/IR_MSB/data_out_reg[0]_8[0]                                    | PROCESSOR_INST/REG_FILE/GEN_Basic_registers[0].B_REG/AR[0]                          |                6 |              8 |
|  clk_i       | PROCESSOR_INST/IR_MSB/data_out_reg[0]_9[0]                                    | PROCESSOR_INST/REG_FILE/GEN_Basic_registers[0].B_REG/AR[0]                          |                2 |              8 |
|  clk_i       | PROCESSOR_INST/IR_MSB/E[0]                                                    | PROCESSOR_INST/REG_FILE/GEN_Basic_registers[0].B_REG/AR[0]                          |                3 |              8 |
|  clk_i       | PROCESSOR_INST/IR_MSB/data_out_reg[0]_10[0]                                   | PROCESSOR_INST/REG_FILE/GEN_Basic_registers[0].B_REG/AR[0]                          |                1 |              8 |
|  clk_i       | PROCESSOR_INST/IR_MSB/data_out_reg[0]_11[0]                                   | PROCESSOR_INST/REG_FILE/GEN_Basic_registers[0].B_REG/AR[0]                          |                4 |              8 |
|  clk_i       | PROCESSOR_INST/CU/IC/write_en_ram_i                                           |                                                                                     |                2 |              8 |
|  clk_i       | PROCESSOR_INST/CU/control_lines_i[3]                                          | PROCESSOR_INST/REG_FILE/GEN_Basic_registers[0].B_REG/AR[0]                          |                1 |              8 |
|  clk_i       | PROCESSOR_INST/CU/control_lines_i[2]                                          | PROCESSOR_INST/REG_FILE/GEN_Basic_registers[0].B_REG/AR[0]                          |                3 |              8 |
|  clk_i       | PROCESSOR_INST/CU/control_lines_i[1]                                          | PROCESSOR_INST/REG_FILE/GEN_Basic_registers[0].B_REG/AR[0]                          |                1 |              8 |
|  clk_i       | PROCESSOR_INST/CU/control_lines_i[0]                                          | PROCESSOR_INST/REG_FILE/GEN_Basic_registers[0].B_REG/AR[0]                          |                1 |              8 |
|  clk_i       | PROCESSOR_INST/CU/control_lines_i[5]                                          | PROCESSOR_INST/REG_FILE/GEN_Basic_registers[0].B_REG/AR[0]                          |                1 |              8 |
|  clk_i       | PROCESSOR_INST/MAR/E[0]                                                       |                                                                                     |                2 |              8 |
|  clk_i       | PROCESSOR_INST/MAR/data_bus_i_reg[0][0]                                       | PROCESSOR_INST/REG_FILE/GEN_Basic_registers[0].B_REG/AR[0]                          |                3 |              8 |
|  clk_i       | PROCESSOR_INST/MAR/data_out_reg[0]_0[0]                                       | PROCESSOR_INST/REG_FILE/GEN_Basic_registers[0].B_REG/AR[0]                          |                3 |              8 |
|  clk_i       | PROCESSOR_INST/MAR/ctrl_mem_addr_i_reg[0][0]                                  | PROCESSOR_INST/REG_FILE/GEN_Basic_registers[0].B_REG/AR[0]                          |                2 |             12 |
|  clk_i       | PROCESSOR_INST/CU/data_out_reg[0]_3[0]                                        | PROCESSOR_INST/REG_FILE/GEN_Basic_registers[0].B_REG/AR[0]                          |                6 |             13 |
|  clk_i       | IO_INST/BTNS_REGISTERS/BTNS_DEBOUNCING/DEBOUNCED_VECTOR[0].DEBOUNCERS/counter | IO_INST/BTNS_REGISTERS/BTNS_DEBOUNCING/DEBOUNCED_VECTOR[0].DEBOUNCERS/reset_counter |                4 |             14 |
|  clk_i       | IO_INST/SW_REGISTERS/BTNS_DEBOUNCING/DEBOUNCED_VECTOR[15].DEBOUNCERS/counter  | IO_INST/SW_REGISTERS/BTNS_DEBOUNCING/DEBOUNCED_VECTOR[15].DEBOUNCERS/reset_counter  |                4 |             14 |
|  clk_i       | IO_INST/SW_REGISTERS/BTNS_DEBOUNCING/DEBOUNCED_VECTOR[12].DEBOUNCERS/counter  | IO_INST/SW_REGISTERS/BTNS_DEBOUNCING/DEBOUNCED_VECTOR[12].DEBOUNCERS/reset_counter  |                4 |             14 |
|  clk_i       | IO_INST/BTNS_REGISTERS/BTNS_DEBOUNCING/DEBOUNCED_VECTOR[3].DEBOUNCERS/counter | IO_INST/BTNS_REGISTERS/BTNS_DEBOUNCING/DEBOUNCED_VECTOR[3].DEBOUNCERS/reset_counter |                4 |             14 |
|  clk_i       | IO_INST/SW_REGISTERS/BTNS_DEBOUNCING/DEBOUNCED_VECTOR[6].DEBOUNCERS/counter   | IO_INST/SW_REGISTERS/BTNS_DEBOUNCING/DEBOUNCED_VECTOR[6].DEBOUNCERS/reset_counter   |                4 |             14 |
|  clk_i       | IO_INST/BTNS_REGISTERS/BTNS_DEBOUNCING/DEBOUNCED_VECTOR[1].DEBOUNCERS/counter | IO_INST/BTNS_REGISTERS/BTNS_DEBOUNCING/DEBOUNCED_VECTOR[1].DEBOUNCERS/reset_counter |                4 |             14 |
|  clk_i       | IO_INST/BTNS_REGISTERS/BTNS_DEBOUNCING/DEBOUNCED_VECTOR[2].DEBOUNCERS/counter | IO_INST/BTNS_REGISTERS/BTNS_DEBOUNCING/DEBOUNCED_VECTOR[2].DEBOUNCERS/reset_counter |                4 |             14 |
|  clk_i       | IO_INST/SW_REGISTERS/BTNS_DEBOUNCING/DEBOUNCED_VECTOR[11].DEBOUNCERS/counter  | IO_INST/SW_REGISTERS/BTNS_DEBOUNCING/DEBOUNCED_VECTOR[11].DEBOUNCERS/reset_counter  |                4 |             14 |
|  clk_i       | IO_INST/SW_REGISTERS/BTNS_DEBOUNCING/DEBOUNCED_VECTOR[10].DEBOUNCERS/counter  | IO_INST/SW_REGISTERS/BTNS_DEBOUNCING/DEBOUNCED_VECTOR[10].DEBOUNCERS/reset_counter  |                4 |             14 |
|  clk_i       | IO_INST/SW_REGISTERS/BTNS_DEBOUNCING/DEBOUNCED_VECTOR[14].DEBOUNCERS/counter  | IO_INST/SW_REGISTERS/BTNS_DEBOUNCING/DEBOUNCED_VECTOR[14].DEBOUNCERS/reset_counter  |                4 |             14 |
|  clk_i       | IO_INST/SW_REGISTERS/BTNS_DEBOUNCING/DEBOUNCED_VECTOR[0].DEBOUNCERS/counter   | IO_INST/SW_REGISTERS/BTNS_DEBOUNCING/DEBOUNCED_VECTOR[0].DEBOUNCERS/reset_counter   |                4 |             14 |
|  clk_i       | IO_INST/SW_REGISTERS/BTNS_DEBOUNCING/DEBOUNCED_VECTOR[3].DEBOUNCERS/counter   | IO_INST/SW_REGISTERS/BTNS_DEBOUNCING/DEBOUNCED_VECTOR[3].DEBOUNCERS/reset_counter   |                4 |             14 |
|  clk_i       | IO_INST/SW_REGISTERS/BTNS_DEBOUNCING/DEBOUNCED_VECTOR[1].DEBOUNCERS/counter   | IO_INST/SW_REGISTERS/BTNS_DEBOUNCING/DEBOUNCED_VECTOR[1].DEBOUNCERS/reset_counter   |                4 |             14 |
|  clk_i       | IO_INST/BTNS_REGISTERS/BTNS_DEBOUNCING/DEBOUNCED_VECTOR[4].DEBOUNCERS/counter | IO_INST/BTNS_REGISTERS/BTNS_DEBOUNCING/DEBOUNCED_VECTOR[4].DEBOUNCERS/reset_counter |                4 |             14 |
|  clk_i       | IO_INST/SW_REGISTERS/BTNS_DEBOUNCING/DEBOUNCED_VECTOR[4].DEBOUNCERS/counter   | IO_INST/SW_REGISTERS/BTNS_DEBOUNCING/DEBOUNCED_VECTOR[4].DEBOUNCERS/reset_counter   |                4 |             14 |
|  clk_i       | IO_INST/SW_REGISTERS/BTNS_DEBOUNCING/DEBOUNCED_VECTOR[13].DEBOUNCERS/counter  | IO_INST/SW_REGISTERS/BTNS_DEBOUNCING/DEBOUNCED_VECTOR[13].DEBOUNCERS/reset_counter  |                4 |             14 |
|  clk_i       | IO_INST/SW_REGISTERS/BTNS_DEBOUNCING/DEBOUNCED_VECTOR[7].DEBOUNCERS/counter   | IO_INST/SW_REGISTERS/BTNS_DEBOUNCING/DEBOUNCED_VECTOR[7].DEBOUNCERS/reset_counter   |                4 |             14 |
|  clk_i       | IO_INST/SW_REGISTERS/BTNS_DEBOUNCING/DEBOUNCED_VECTOR[2].DEBOUNCERS/counter   | IO_INST/SW_REGISTERS/BTNS_DEBOUNCING/DEBOUNCED_VECTOR[2].DEBOUNCERS/reset_counter   |                4 |             14 |
|  clk_i       | IO_INST/SW_REGISTERS/BTNS_DEBOUNCING/DEBOUNCED_VECTOR[8].DEBOUNCERS/counter   | IO_INST/SW_REGISTERS/BTNS_DEBOUNCING/DEBOUNCED_VECTOR[8].DEBOUNCERS/reset_counter   |                4 |             14 |
|  clk_i       | IO_INST/SW_REGISTERS/BTNS_DEBOUNCING/DEBOUNCED_VECTOR[5].DEBOUNCERS/counter   | IO_INST/SW_REGISTERS/BTNS_DEBOUNCING/DEBOUNCED_VECTOR[5].DEBOUNCERS/reset_counter   |                4 |             14 |
|  clk_i       | IO_INST/SW_REGISTERS/BTNS_DEBOUNCING/DEBOUNCED_VECTOR[9].DEBOUNCERS/counter   | IO_INST/SW_REGISTERS/BTNS_DEBOUNCING/DEBOUNCED_VECTOR[9].DEBOUNCERS/reset_counter   |                4 |             14 |
|  clk_i       | PROCESSOR_INST/MAR/data_out_reg[0]_5[0]                                       | PROCESSOR_INST/REG_FILE/GEN_Basic_registers[0].B_REG/AR[0]                          |                2 |             16 |
|  clk_i       | PROCESSOR_INST/MAR/data_out_reg[7]_0[0]                                       | PROCESSOR_INST/REG_FILE/GEN_Basic_registers[0].B_REG/AR[0]                          |                4 |             16 |
|  clk_i       | IO_INST/TIMER_REG/PERIPHERAL/REG_FILE[0].REG_INST/data_bus_i_reg[7][0]        | PROCESSOR_INST/REG_FILE/GEN_Basic_registers[0].B_REG/AR[0]                          |                4 |             25 |
|  clk_i       |                                                                               | PROCESSOR_INST/REG_FILE/GEN_Basic_registers[0].B_REG/AR[0]                          |               13 |             48 |
|  clk_i       |                                                                               |                                                                                     |               27 |             66 |
+--------------+-------------------------------------------------------------------------------+-------------------------------------------------------------------------------------+------------------+----------------+


+--------+-----------------------+
| Fanout | Number of ControlSets |
+--------+-----------------------+
| 4      |                     5 |
| 5      |                     1 |
| 8      |                    19 |
| 12     |                     1 |
| 13     |                     1 |
| 14     |                    21 |
| 16+    |                     5 |
+--------+-----------------------+


