Copyright 1986-2017 Xilinx, Inc. All Rights Reserved.
-------------------------------------------------------------------------------------------------------------------------------
| Tool Version     : Vivado v.2017.4 (lin64) Build 2086221 Fri Dec 15 20:54:30 MST 2017
| Date             : Tue Dec  8 13:36:29 2020
| Host             : b230-PC09 running 64-bit Ubuntu 18.04.5 LTS
| Command          : report_power -file top_power_routed.rpt -pb top_power_summary_routed.pb -rpx top_power_routed.rpx
| Design           : top
| Device           : xc7a100tcsg324-1
| Design State     : routed
| Grade            : commercial
| Process          : typical
| Characterization : Production
-------------------------------------------------------------------------------------------------------------------------------

Power Report

Table of Contents
-----------------
1. Summary
1.1 On-Chip Components
1.2 Power Supply Summary
1.3 Confidence Level
2. Settings
2.1 Environment
2.2 Clock Constraints
3. Detailed Reports
3.1 By Hierarchy

1. Summary
----------

+--------------------------+--------------+
| Total On-Chip Power (W)  | 0.098        |
| Design Power Budget (W)  | Unspecified* |
| Power Budget Margin (W)  | NA           |
| Dynamic (W)              | 0.001        |
| Device Static (W)        | 0.097        |
| Effective TJA (C/W)      | 4.6          |
| Max Ambient (C)          | 84.6         |
| Junction Temperature (C) | 25.4         |
| Confidence Level         | Low          |
| Setting File             | ---          |
| Simulation Activity File | ---          |
| Design Nets Matched      | NA           |
+--------------------------+--------------+
* Specify Design Power Budget using, set_operating_conditions -design_power_budget <value in Watts>


1.1 On-Chip Components
----------------------

+--------------------------+-----------+----------+-----------+-----------------+
| On-Chip                  | Power (W) | Used     | Available | Utilization (%) |
+--------------------------+-----------+----------+-----------+-----------------+
| Clocks                   |    <0.001 |        4 |       --- |             --- |
| Slice Logic              |    <0.001 |     1359 |       --- |             --- |
|   LUT as Logic           |    <0.001 |      465 |     63400 |            0.73 |
|   CARRY4                 |    <0.001 |       96 |     15850 |            0.61 |
|   Register               |    <0.001 |      659 |    126800 |            0.52 |
|   F7/F8 Muxes            |    <0.001 |        5 |     63400 |           <0.01 |
|   LUT as Distributed RAM |    <0.001 |        8 |     19000 |            0.04 |
|   Others                 |     0.000 |       62 |       --- |             --- |
| Signals                  |    <0.001 |     1178 |       --- |             --- |
| Block RAM                |    <0.001 |      0.5 |       135 |            0.37 |
| I/O                      |    <0.001 |       54 |       210 |           25.71 |
| Static Power             |     0.097 |          |           |                 |
| Total                    |     0.098 |          |           |                 |
+--------------------------+-----------+----------+-----------+-----------------+


1.2 Power Supply Summary
------------------------

+-----------+-------------+-----------+-------------+------------+
| Source    | Voltage (V) | Total (A) | Dynamic (A) | Static (A) |
+-----------+-------------+-----------+-------------+------------+
| Vccint    |       1.000 |     0.016 |       0.001 |      0.015 |
| Vccaux    |       1.800 |     0.018 |       0.000 |      0.018 |
| Vcco33    |       3.300 |     0.004 |       0.000 |      0.004 |
| Vcco25    |       2.500 |     0.000 |       0.000 |      0.000 |
| Vcco18    |       1.800 |     0.000 |       0.000 |      0.000 |
| Vcco15    |       1.500 |     0.000 |       0.000 |      0.000 |
| Vcco135   |       1.350 |     0.000 |       0.000 |      0.000 |
| Vcco12    |       1.200 |     0.000 |       0.000 |      0.000 |
| Vccaux_io |       1.800 |     0.000 |       0.000 |      0.000 |
| Vccbram   |       1.000 |     0.000 |       0.000 |      0.000 |
| MGTAVcc   |       1.000 |     0.000 |       0.000 |      0.000 |
| MGTAVtt   |       1.200 |     0.000 |       0.000 |      0.000 |
| Vccadc    |       1.800 |     0.020 |       0.000 |      0.020 |
+-----------+-------------+-----------+-------------+------------+


1.3 Confidence Level
--------------------

+-----------------------------+------------+--------------------------------------------------------+------------------------------------------------------------------------------------------------------------+
| User Input Data             | Confidence | Details                                                | Action                                                                                                     |
+-----------------------------+------------+--------------------------------------------------------+------------------------------------------------------------------------------------------------------------+
| Design implementation state | High       | Design is routed                                       |                                                                                                            |
| Clock nodes activity        | High       | User specified more than 95% of clocks                 |                                                                                                            |
| I/O nodes activity          | Low        | More than 75% of inputs are missing user specification | Provide missing input activity with simulation results or by editing the "By Resource Type -> I/Os" view   |
| Internal nodes activity     | Medium     | User specified less than 25% of internal nodes         | Provide missing internal nodes activity with simulation results or by editing the "By Resource Type" views |
| Device models               | High       | Device models are Production                           |                                                                                                            |
|                             |            |                                                        |                                                                                                            |
| Overall confidence level    | Low        |                                                        |                                                                                                            |
+-----------------------------+------------+--------------------------------------------------------+------------------------------------------------------------------------------------------------------------+


2. Settings
-----------

2.1 Environment
---------------

+-----------------------+--------------------------+
| Ambient Temp (C)      | 25.0                     |
| ThetaJA (C/W)         | 4.6                      |
| Airflow (LFM)         | 250                      |
| Heat Sink             | medium (Medium Profile)  |
| ThetaSA (C/W)         | 4.6                      |
| Board Selection       | medium (10"x10")         |
| # of Board Layers     | 12to15 (12 to 15 Layers) |
| Board Temperature (C) | 25.0                     |
+-----------------------+--------------------------+


2.2 Clock Constraints
---------------------

+-------------+--------+-----------------+
| Clock       | Domain | Constraint (ns) |
+-------------+--------+-----------------+
| clk_i       | clk_i  |            80.0 |
| sys_clk_pin | clk    |            10.0 |
+-------------+--------+-----------------+


3. Detailed Reports
-------------------

3.1 By Hierarchy
----------------

+-----------------------------------------+-----------+
| Name                                    | Power (W) |
+-----------------------------------------+-----------+
| top                                     |     0.001 |
|   IO_INST                               |    <0.001 |
|     BTNS_REGISTERS                      |    <0.001 |
|       BTNS_DEBOUNCING                   |    <0.001 |
|         DEBOUNCED_VECTOR[0].DEBOUNCERS  |    <0.001 |
|         DEBOUNCED_VECTOR[1].DEBOUNCERS  |    <0.001 |
|         DEBOUNCED_VECTOR[2].DEBOUNCERS  |    <0.001 |
|         DEBOUNCED_VECTOR[3].DEBOUNCERS  |    <0.001 |
|         DEBOUNCED_VECTOR[4].DEBOUNCERS  |    <0.001 |
|       IRQ_DETECT                        |    <0.001 |
|       REGISTERS                         |    <0.001 |
|         PERIPHERAL                      |    <0.001 |
|           REG_FILE[0].REG_INST          |    <0.001 |
|     DATA_OUT_SELECTOR                   |    <0.001 |
|     DISP_SEG_DRIVER                     |    <0.001 |
|     IRQ_E_REGISTER                      |    <0.001 |
|       PERIPHERAL                        |    <0.001 |
|         REG_FILE[0].REG_INST            |    <0.001 |
|     IRQ_F_REGISTER                      |    <0.001 |
|       PERIPHERAL                        |    <0.001 |
|         REG_FILE[0].REG_INST            |    <0.001 |
|     LED_REGISTERS                       |    <0.001 |
|       PERIPHERAL                        |    <0.001 |
|         REG_FILE[0].REG_INST            |    <0.001 |
|         REG_FILE[1].REG_INST            |    <0.001 |
|     SEG7_REGISTERS                      |    <0.001 |
|       PERIPHERAL                        |    <0.001 |
|         REG_FILE[0].REG_INST            |    <0.001 |
|         REG_FILE[1].REG_INST            |    <0.001 |
|         REG_FILE[2].REG_INST            |    <0.001 |
|         REG_FILE[3].REG_INST            |    <0.001 |
|     SW_REGISTERS                        |    <0.001 |
|       BTNS_DEBOUNCING                   |    <0.001 |
|         DEBOUNCED_VECTOR[0].DEBOUNCERS  |    <0.001 |
|         DEBOUNCED_VECTOR[10].DEBOUNCERS |    <0.001 |
|         DEBOUNCED_VECTOR[11].DEBOUNCERS |    <0.001 |
|         DEBOUNCED_VECTOR[12].DEBOUNCERS |    <0.001 |
|         DEBOUNCED_VECTOR[13].DEBOUNCERS |    <0.001 |
|         DEBOUNCED_VECTOR[14].DEBOUNCERS |    <0.001 |
|         DEBOUNCED_VECTOR[15].DEBOUNCERS |    <0.001 |
|         DEBOUNCED_VECTOR[1].DEBOUNCERS  |    <0.001 |
|         DEBOUNCED_VECTOR[2].DEBOUNCERS  |    <0.001 |
|         DEBOUNCED_VECTOR[3].DEBOUNCERS  |    <0.001 |
|         DEBOUNCED_VECTOR[4].DEBOUNCERS  |    <0.001 |
|         DEBOUNCED_VECTOR[5].DEBOUNCERS  |    <0.001 |
|         DEBOUNCED_VECTOR[6].DEBOUNCERS  |    <0.001 |
|         DEBOUNCED_VECTOR[7].DEBOUNCERS  |    <0.001 |
|         DEBOUNCED_VECTOR[8].DEBOUNCERS  |    <0.001 |
|         DEBOUNCED_VECTOR[9].DEBOUNCERS  |    <0.001 |
|       IRQ_DETECT                        |    <0.001 |
|       REGISTERS                         |    <0.001 |
|         PERIPHERAL                      |    <0.001 |
|           REG_FILE[0].REG_INST          |    <0.001 |
|           REG_FILE[1].REG_INST          |    <0.001 |
|     TIMER_REG                           |    <0.001 |
|       PERIPHERAL                        |    <0.001 |
|         REG_FILE[0].REG_INST            |    <0.001 |
|     TMR1S                               |    <0.001 |
|   PROCESSOR_INST                        |    <0.001 |
|     ALU                                 |    <0.001 |
|     ALU_FLAGS                           |    <0.001 |
|     ALU_Y                               |    <0.001 |
|     ALU_Z                               |    <0.001 |
|     CU                                  |    <0.001 |
|       IC                                |    <0.001 |
|     DIBR                                |    <0.001 |
|     DOBR                                |    <0.001 |
|     IR_LSB                              |    <0.001 |
|     IR_MSB                              |    <0.001 |
|     MAR                                 |    <0.001 |
|     PC                                  |    <0.001 |
|     REG_FILE                            |    <0.001 |
|       GEN_Basic_registers[0].B_REG      |    <0.001 |
|       GEN_Basic_registers[1].B_REG      |    <0.001 |
|       GEN_Basic_registers[2].B_REG      |    <0.001 |
|       GEN_Basic_registers[3].B_REG      |    <0.001 |
|       GEN_Basic_registers[4].B_REG      |    <0.001 |
|       GEN_Basic_registers[5].B_REG      |    <0.001 |
|       GEN_Basic_registers[6].B_REG      |    <0.001 |
|       GEN_Basic_registers[7].B_REG      |    <0.001 |
|     SP_OFFSET                           |    <0.001 |
|   RAM_INST                              |    <0.001 |
|     DIST_RAM64_Word[0].RAM64X1S_inst    |    <0.001 |
|     DIST_RAM64_Word[1].RAM64X1S_inst    |    <0.001 |
|     DIST_RAM64_Word[2].RAM64X1S_inst    |    <0.001 |
|     DIST_RAM64_Word[3].RAM64X1S_inst    |    <0.001 |
|     DIST_RAM64_Word[4].RAM64X1S_inst    |    <0.001 |
|     DIST_RAM64_Word[5].RAM64X1S_inst    |    <0.001 |
|     DIST_RAM64_Word[6].RAM64X1S_inst    |    <0.001 |
|     DIST_RAM64_Word[7].RAM64X1S_inst    |    <0.001 |
|   ROM_INST                              |    <0.001 |
+-----------------------------------------+-----------+


