Copyright 1986-2017 Xilinx, Inc. All Rights Reserved.
------------------------------------------------------------------------------------------------
| Tool Version : Vivado v.2017.4 (lin64) Build 2086221 Fri Dec 15 20:54:30 MST 2017
| Date         : Tue Dec  8 13:36:02 2020
| Host         : b230-PC09 running 64-bit Ubuntu 18.04.5 LTS
| Command      : report_drc -file top_drc_opted.rpt -pb top_drc_opted.pb -rpx top_drc_opted.rpx
| Design       : top
| Device       : xc7a100tcsg324-1
| Speed File   : -1
| Design State : Synthesized
------------------------------------------------------------------------------------------------

Report DRC

Table of Contents
-----------------
1. REPORT SUMMARY
2. REPORT DETAILS

1. REPORT SUMMARY
-----------------
            Netlist: netlist
          Floorplan: design_1
      Design limits: <entire design considered>
           Ruledeck: default
             Max violations: <unlimited>
             Violations found: 15
+-----------+----------+-----------------------------------------------------+------------+
| Rule      | Severity | Description                                         | Violations |
+-----------+----------+-----------------------------------------------------+------------+
| CFGBVS-1  | Warning  | Missing CFGBVS and CONFIG_VOLTAGE Design Properties | 1          |
| REQP-1840 | Warning  | RAMB18 async control check                          | 14         |
+-----------+----------+-----------------------------------------------------+------------+

2. REPORT DETAILS
-----------------
CFGBVS-1#1 Warning
Missing CFGBVS and CONFIG_VOLTAGE Design Properties  
Neither the CFGBVS nor CONFIG_VOLTAGE voltage property is set in the current_design.  Configuration bank voltage select (CFGBVS) must be set to VCCO or GND, and CONFIG_VOLTAGE must be set to the correct configuration voltage, in order to determine the I/O voltage support for the pins in bank 0.  It is suggested to specify these either using the 'Edit Device Properties' function in the GUI or directly in the XDC file using the following syntax:

 set_property CFGBVS value1 [current_design]
 #where value1 is either VCCO or GND

 set_property CONFIG_VOLTAGE value2 [current_design]
 #where value2 is the voltage provided to configuration bank 0

Refer to the device configuration user guide for more information.
Related violations: <none>

REQP-1840#1 Warning
RAMB18 async control check  
The RAMB18E1 ROM_INST/do_reg_reg has an input control pin ROM_INST/do_reg_reg/ADDRARDADDR[10] (net: ROM_INST/Q[6]) which is driven by a register (PROCESSOR_INST/MAR/data_out_reg[6]) that has an active asychronous set or reset. This may cause corruption of the memory contents and/or read values when the set/reset is asserted and is not analyzed by the default static timing analysis. It is suggested to eliminate the use of a set/reset to registers driving this RAMB pin or else use a synchronous reset in which the assertion of the reset is timed by default.
Related violations: <none>

REQP-1840#2 Warning
RAMB18 async control check  
The RAMB18E1 ROM_INST/do_reg_reg has an input control pin ROM_INST/do_reg_reg/ADDRARDADDR[4] (net: ROM_INST/Q[0]) which is driven by a register (PROCESSOR_INST/MAR/data_out_reg[0]) that has an active asychronous set or reset. This may cause corruption of the memory contents and/or read values when the set/reset is asserted and is not analyzed by the default static timing analysis. It is suggested to eliminate the use of a set/reset to registers driving this RAMB pin or else use a synchronous reset in which the assertion of the reset is timed by default.
Related violations: <none>

REQP-1840#3 Warning
RAMB18 async control check  
The RAMB18E1 ROM_INST/do_reg_reg has an input control pin ROM_INST/do_reg_reg/ADDRARDADDR[5] (net: ROM_INST/Q[1]) which is driven by a register (PROCESSOR_INST/MAR/data_out_reg[1]) that has an active asychronous set or reset. This may cause corruption of the memory contents and/or read values when the set/reset is asserted and is not analyzed by the default static timing analysis. It is suggested to eliminate the use of a set/reset to registers driving this RAMB pin or else use a synchronous reset in which the assertion of the reset is timed by default.
Related violations: <none>

REQP-1840#4 Warning
RAMB18 async control check  
The RAMB18E1 ROM_INST/do_reg_reg has an input control pin ROM_INST/do_reg_reg/ADDRARDADDR[6] (net: ROM_INST/Q[2]) which is driven by a register (PROCESSOR_INST/MAR/data_out_reg[2]) that has an active asychronous set or reset. This may cause corruption of the memory contents and/or read values when the set/reset is asserted and is not analyzed by the default static timing analysis. It is suggested to eliminate the use of a set/reset to registers driving this RAMB pin or else use a synchronous reset in which the assertion of the reset is timed by default.
Related violations: <none>

REQP-1840#5 Warning
RAMB18 async control check  
The RAMB18E1 ROM_INST/do_reg_reg has an input control pin ROM_INST/do_reg_reg/ADDRARDADDR[7] (net: ROM_INST/Q[3]) which is driven by a register (PROCESSOR_INST/MAR/data_out_reg[3]) that has an active asychronous set or reset. This may cause corruption of the memory contents and/or read values when the set/reset is asserted and is not analyzed by the default static timing analysis. It is suggested to eliminate the use of a set/reset to registers driving this RAMB pin or else use a synchronous reset in which the assertion of the reset is timed by default.
Related violations: <none>

REQP-1840#6 Warning
RAMB18 async control check  
The RAMB18E1 ROM_INST/do_reg_reg has an input control pin ROM_INST/do_reg_reg/ADDRARDADDR[8] (net: ROM_INST/Q[4]) which is driven by a register (PROCESSOR_INST/MAR/data_out_reg[4]) that has an active asychronous set or reset. This may cause corruption of the memory contents and/or read values when the set/reset is asserted and is not analyzed by the default static timing analysis. It is suggested to eliminate the use of a set/reset to registers driving this RAMB pin or else use a synchronous reset in which the assertion of the reset is timed by default.
Related violations: <none>

REQP-1840#7 Warning
RAMB18 async control check  
The RAMB18E1 ROM_INST/do_reg_reg has an input control pin ROM_INST/do_reg_reg/ADDRARDADDR[9] (net: ROM_INST/Q[5]) which is driven by a register (PROCESSOR_INST/MAR/data_out_reg[5]) that has an active asychronous set or reset. This may cause corruption of the memory contents and/or read values when the set/reset is asserted and is not analyzed by the default static timing analysis. It is suggested to eliminate the use of a set/reset to registers driving this RAMB pin or else use a synchronous reset in which the assertion of the reset is timed by default.
Related violations: <none>

REQP-1840#8 Warning
RAMB18 async control check  
The RAMB18E1 ROM_INST/do_reg_reg has an input control pin ROM_INST/do_reg_reg/ENARDEN (net: ROM_INST/do_reg_reg_ENARDEN_cooolgate_en_sig_3) which is driven by a register (PROCESSOR_INST/CU/ctrl_mem_addr_i_reg_rep[0]) that has an active asychronous set or reset. This may cause corruption of the memory contents and/or read values when the set/reset is asserted and is not analyzed by the default static timing analysis. It is suggested to eliminate the use of a set/reset to registers driving this RAMB pin or else use a synchronous reset in which the assertion of the reset is timed by default.
Related violations: <none>

REQP-1840#9 Warning
RAMB18 async control check  
The RAMB18E1 ROM_INST/do_reg_reg has an input control pin ROM_INST/do_reg_reg/ENARDEN (net: ROM_INST/do_reg_reg_ENARDEN_cooolgate_en_sig_3) which is driven by a register (PROCESSOR_INST/CU/ctrl_mem_addr_i_reg_rep[1]) that has an active asychronous set or reset. This may cause corruption of the memory contents and/or read values when the set/reset is asserted and is not analyzed by the default static timing analysis. It is suggested to eliminate the use of a set/reset to registers driving this RAMB pin or else use a synchronous reset in which the assertion of the reset is timed by default.
Related violations: <none>

REQP-1840#10 Warning
RAMB18 async control check  
The RAMB18E1 ROM_INST/do_reg_reg has an input control pin ROM_INST/do_reg_reg/ENARDEN (net: ROM_INST/do_reg_reg_ENARDEN_cooolgate_en_sig_3) which is driven by a register (PROCESSOR_INST/CU/ctrl_mem_addr_i_reg_rep[2]) that has an active asychronous set or reset. This may cause corruption of the memory contents and/or read values when the set/reset is asserted and is not analyzed by the default static timing analysis. It is suggested to eliminate the use of a set/reset to registers driving this RAMB pin or else use a synchronous reset in which the assertion of the reset is timed by default.
Related violations: <none>

REQP-1840#11 Warning
RAMB18 async control check  
The RAMB18E1 ROM_INST/do_reg_reg has an input control pin ROM_INST/do_reg_reg/ENARDEN (net: ROM_INST/do_reg_reg_ENARDEN_cooolgate_en_sig_3) which is driven by a register (PROCESSOR_INST/CU/ctrl_mem_addr_i_reg_rep[3]) that has an active asychronous set or reset. This may cause corruption of the memory contents and/or read values when the set/reset is asserted and is not analyzed by the default static timing analysis. It is suggested to eliminate the use of a set/reset to registers driving this RAMB pin or else use a synchronous reset in which the assertion of the reset is timed by default.
Related violations: <none>

REQP-1840#12 Warning
RAMB18 async control check  
The RAMB18E1 ROM_INST/do_reg_reg has an input control pin ROM_INST/do_reg_reg/ENARDEN (net: ROM_INST/do_reg_reg_ENARDEN_cooolgate_en_sig_3) which is driven by a register (PROCESSOR_INST/CU/ctrl_mem_addr_i_reg_rep[4]) that has an active asychronous set or reset. This may cause corruption of the memory contents and/or read values when the set/reset is asserted and is not analyzed by the default static timing analysis. It is suggested to eliminate the use of a set/reset to registers driving this RAMB pin or else use a synchronous reset in which the assertion of the reset is timed by default.
Related violations: <none>

REQP-1840#13 Warning
RAMB18 async control check  
The RAMB18E1 ROM_INST/do_reg_reg has an input control pin ROM_INST/do_reg_reg/ENARDEN (net: ROM_INST/do_reg_reg_ENARDEN_cooolgate_en_sig_3) which is driven by a register (PROCESSOR_INST/CU/ctrl_mem_addr_i_reg_rep[5]) that has an active asychronous set or reset. This may cause corruption of the memory contents and/or read values when the set/reset is asserted and is not analyzed by the default static timing analysis. It is suggested to eliminate the use of a set/reset to registers driving this RAMB pin or else use a synchronous reset in which the assertion of the reset is timed by default.
Related violations: <none>

REQP-1840#14 Warning
RAMB18 async control check  
The RAMB18E1 ROM_INST/do_reg_reg has an input control pin ROM_INST/do_reg_reg/ENARDEN (net: ROM_INST/do_reg_reg_ENARDEN_cooolgate_en_sig_3) which is driven by a register (PROCESSOR_INST/MAR/data_out_reg[7]) that has an active asychronous set or reset. This may cause corruption of the memory contents and/or read values when the set/reset is asserted and is not analyzed by the default static timing analysis. It is suggested to eliminate the use of a set/reset to registers driving this RAMB pin or else use a synchronous reset in which the assertion of the reset is timed by default.
Related violations: <none>


